<?xml version="1.0" encoding="utf-8"?>
<!-- Generator: Adobe Illustrator 27.9.0, SVG Export Plug-In . SVG Version: 6.00 Build 0)  -->
<svg version="1.1" id="Layer_1" xmlns="http://www.w3.org/2000/svg" xmlns:xlink="http://www.w3.org/1999/xlink" x="0px" y="0px"
	 viewBox="0 0 150 150" style="enable-background:new 0 0 150 150;" xml:space="preserve">
<style type="text/css">
	.st0{fill:#0030FF;}
</style>
<path class="st0" d="M75,5C36.3,5,5,36.4,5,75c0,38.6,31.3,70,70,70s70-31.3,70-70C145,36.4,113.7,5,75,5z M104.3,53.1
	c-0.2,2.5-1.6,11.3-3,20.7l-4.5,28.1c0,0-0.4,4.1-3.4,4.8c-3,0.7-8-2.5-8.9-3.2C83.7,103,71,95,66.4,91c-1.3-1.1-2.7-3.2,0.2-5.7
	c6.4-5.9,14.1-13.2,18.8-17.9c2.1-2.1,4.3-7.2-4.7-1.1l-25.2,17c0,0-2.9,1.8-8.2,0.2c-5.4-1.6-11.6-3.8-11.6-3.8s-4.3-2.7,3-5.5
	l41.7-17.2c4.1-1.8,18.1-7.5,18.1-7.5S104.8,47.1,104.3,53.1z"/>
</svg>
